…
    ## Quality range: 50 - 228

``` r
cat("SNP range:", min(snp_filt$SNPs), "-", max(snp_filt$SNPs), "\n\n")
```

    ## SNP range: 1 - 1326

``` r
# Display filtered data
snp_filt %>% 
  arrange(Background, KO, quality)
```

    ## # A tibble: 865 × 4
    ##    quality  SNPs Background KO    
    ##      <dbl> <dbl> <chr>      <chr> 
    ##  1      50     1 x70_15     dmst11
    ##  2      51     2 x70_15     dmst11
    ##  3      52     4 x70_15     dmst11
    ##  4      53     3 x70_15     dmst11
    ##  5      54     1 x70_15     dmst11
    ##  6      55     3 x70_15     dmst11
    ##  7      56     3 x70_15     dmst11
    ##  8      57     5 x70_15     dmst11
    ##  9      58     2 x70_15     dmst11
    ## 10      59     3 x70_15     dmst11
    ## # ℹ 855 more rows
…
